Reference, Value, Footprint, Datasheet, Mouser
"U1","XR20M1170_26p_TSSOP","Package_SO:TSSOP-16_4.4x5mm_P0.65mm","https://no.mouser.com/datasheet/2/146/XR20M1170-1889071.pdf","701-XR20M1170IG16-F "
"U2","THVD1550","Package_SO:SOIC-8_3.9x4.9mm_P1.27mm","http://www.ti.com/lit/ds/symlink/thvd1552.pdf","595-THVD1550DR"
"X1","XO32","Oscillator:Oscillator_SMD_EuroQuartz_XO91-4Pin_7.0x5.0mm_HandSoldering","http://cdn-reichelt.de/documents/datenblatt/B400/XO32.pdf","774-CB3LV-3I-64M0000"
"C1","100nF","Capacitor_SMD:C_0805_2012Metric_Pad1.15x1.40mm_HandSolder","https://no.mouser.com/datasheet/2/445/885012207098-1727748.pdf","710-885012207098"
"R8","120R","Resistor_SMD:R_1210_3225Metric_Pad1.42x2.65mm_HandSolder","~","660-RK73B2ETTD121J"
"J5","RS-485","Connector_PinHeader_2.54mm:PinHeader_1x03_P2.54mm_Vertical","~"
"TP6","ScopeProbe","uzzors2k:Probe_Hole",""
"TP2","TestPoint","TestPoint:TestPoint_Pad_D1.5mm","~"
"R1","10k","Resistor_SMD:R_0805_2012Metric_Pad1.15x1.40mm_HandSolder","https://no.mouser.com/datasheet/2/54/Bourns_CMP_Datasheet_05.28.20-1854233.pdf","652-CMP0805-FX-1002L"
"C2","100nF","Capacitor_SMD:C_0805_2012Metric_Pad1.15x1.40mm_HandSolder","https://no.mouser.com/datasheet/2/445/885012207098-1727748.pdf","710-885012207098"
"C3","100nF","Capacitor_SMD:C_0805_2012Metric_Pad1.15x1.40mm_HandSolder","https://no.mouser.com/datasheet/2/445/885012207098-1727748.pdf","710-885012207098"
"C4","100nF","Capacitor_SMD:C_0805_2012Metric_Pad1.15x1.40mm_HandSolder","https://no.mouser.com/datasheet/2/445/885012207098-1727748.pdf","710-885012207098"
"R5","10k","Resistor_SMD:R_0805_2012Metric_Pad1.15x1.40mm_HandSolder","https://no.mouser.com/datasheet/2/54/Bourns_CMP_Datasheet_05.28.20-1854233.pdf","652-CMP0805-FX-1002L"
"TP5","TestPoint","TestPoint:TestPoint_Pad_D1.0mm","~"
"R4","10k","Resistor_SMD:R_0805_2012Metric_Pad1.15x1.40mm_HandSolder","https://no.mouser.com/datasheet/2/54/Bourns_CMP_Datasheet_05.28.20-1854233.pdf","652-CMP0805-FX-1002L"
"D2","1SS389,L3F","Diode_SMD:D_SOD-523","https://no.mouser.com/datasheet/2/408/1SS389_datasheet_en_20140301-740935.pdf","757-1SS389L3F"
"D3","CDSOT23-SM712","Package_TO_SOT_SMD:SOT-23","https://no.mouser.com/datasheet/2/54/CDSOT23-SM712-1635169.pdf","652-CDSOT23-SM712"
"J4","UART","Connector_PinHeader_2.54mm:PinHeader_1x04_P2.54mm_Vertical","~"
"R2","10k","Resistor_SMD:R_0805_2012Metric_Pad1.15x1.40mm_HandSolder","https://no.mouser.com/datasheet/2/54/Bourns_CMP_Datasheet_05.28.20-1854233.pdf","652-CMP0805-FX-1002L"
"TP1","TestPoint","TestPoint:TestPoint_Pad_D1.5mm","~"
"R7","10R","Resistor_SMD:R_0805_2012Metric_Pad1.15x1.40mm_HandSolder","https://no.mouser.com/datasheet/2/427/crcwhpe3-1713858.pdf","71-CRCW080510R0FKEAH"
"D1","Activity - RED","LED_SMD:LED_0805_2012Metric_Pad1.15x1.40mm_HandSolder","https://no.mouser.com/datasheet/2/239/Lite-On-LTST-S220KRKT-1175337.pdf","859-LTST-S220KRKT"
"R3","120R","Resistor_SMD:R_0805_2012Metric_Pad1.15x1.40mm_HandSolder","~","652-CR0805FX-1200ELF"
"R6","10R","Resistor_SMD:R_0805_2012Metric_Pad1.15x1.40mm_HandSolder","https://no.mouser.com/datasheet/2/427/crcwhpe3-1713858.pdf","71-CRCW080510R0FKEAH"
"J1","I2C","Connector_PinHeader_2.54mm:PinHeader_1x05_P2.54mm_Vertical","~"
"C5","100nF","Capacitor_SMD:C_0805_2012Metric_Pad1.15x1.40mm_HandSolder","https://no.mouser.com/datasheet/2/445/885012207098-1727748.pdf","710-885012207098"
"J3","GPIO","Connector_PinHeader_2.54mm:PinHeader_1x07_P2.54mm_Vertical","~"
"J2","Raspberry_Pi_2_3_4_Zero","uzzors2k:RaspberryPi_Zero","https://www.raspberrypi.org/documentation/hardware/raspberrypi/schematics/rpi_SCH_3bplus_1p0_reduced.pdf","485-2222"
