M48
; DRILL file {KiCad (5.1.2)-2} date 25.10.2020 20:12:55
; FORMAT={-:-/ absolute / metric / decimal}
; #@! TF.CreationDate,2020-10-25T20:12:55+01:00
; #@! TF.GenerationSoftware,Kicad,Pcbnew,(5.1.2)-2
FMAT,2
METRIC
T1C0.400
T2C1.000
T3C1.300
T4C2.700
%
G90
G05
T1
X2.159Y-10.541
X5.334Y-20.066
X5.334Y-22.225
X9.525Y-24.003
X11.684Y-21.082
X12.7Y-12.954
X13.208Y-22.352
X14.097Y-11.557
X15.24Y-17.272
X16.764Y-24.003
X18.542Y-22.225
X19.812Y-17.018
X20.828Y-18.034
X22.352Y-16.002
X22.987Y-23.368
X24.765Y-18.034
X24.765Y-21.336
X25.527Y-22.225
X25.908Y-12.446
X26.416Y-16.129
X27.432Y-18.796
X28.702Y-24.511
X29.21Y-9.271
X29.21Y-13.462
X30.353Y-23.622
X31.877Y-10.668
X32.258Y-17.78
X33.274Y-21.59
X34.036Y-19.177
X35.687Y-14.351
X37.211Y-27.813
X37.465Y-15.621
X39.116Y-10.922
X40.64Y-12.446
X42.418Y-7.62
X43.053Y-24.638
X44.323Y-8.763
T2
X5.715Y-12.573
X5.715Y-15.113
X5.715Y-17.653
X23.462Y-27.813
X11.176Y-27.94
X13.716Y-27.94
X16.256Y-27.94
X18.796Y-27.94
X7.112Y-8.763
X9.652Y-8.763
X12.192Y-8.763
X14.732Y-8.763
X17.272Y-8.763
X8.465Y-2.54
X8.465Y-5.08
X11.005Y-2.54
X11.005Y-5.08
X13.545Y-2.54
X13.545Y-5.08
X16.085Y-2.54
X16.085Y-5.08
X18.625Y-2.54
X18.625Y-5.08
X21.165Y-2.54
X21.165Y-5.08
X23.705Y-2.54
X23.705Y-5.08
X26.245Y-2.54
X26.245Y-5.08
X28.785Y-2.54
X28.785Y-5.08
X31.325Y-2.54
X31.325Y-5.08
X33.865Y-2.54
X33.865Y-5.08
X36.405Y-2.54
X36.405Y-5.08
X38.945Y-2.54
X38.945Y-5.08
X41.485Y-2.54
X41.485Y-5.08
X44.025Y-2.54
X44.025Y-5.08
X46.565Y-2.54
X46.565Y-5.08
X49.105Y-2.54
X49.105Y-5.08
X51.645Y-2.54
X51.645Y-5.08
X54.185Y-2.54
X54.185Y-5.08
X56.725Y-2.54
X56.725Y-5.08
X47.752Y-8.763
X50.292Y-8.763
X52.832Y-8.763
X55.372Y-8.763
X57.912Y-8.763
X60.452Y-8.763
X62.992Y-8.763
T3
X26.162Y-27.813
T4
X3.595Y-3.81
X3.595Y-26.81
X61.595Y-3.81
X61.595Y-26.81
T0
M30
